…
``` r
# summarize within cities to obtain the total number of homicides and umber of unsolved homicides
num_homi <- homi|>
  group_by(city_state)|>
  summarise(total_homi = n(), unsolved = sum(reso == "unsolved"))
num_homi
```

    ## # A tibble: 50 × 3
    ##    city_state      total_homi unsolved
    ##    <chr>                <int>    <int>
    ##  1 Albuquerque, NM        378      146
    ##  2 Atlanta, GA            973      373
    ##  3 Baltimore, MD         2827     1825
    ##  4 Baton Rouge, LA        424      196
    ##  5 Birmingham, AL         800      347
    ##  6 Boston, MA             614      310
    ##  7 Buffalo, NY            521      319
    ##  8 Charlotte, NC          687      206
    ##  9 Chicago, IL           5535     4073
    ## 10 Cincinnati, OH         694      309
    ## # ℹ 40 more rows
…
    ##      city_state estimated_prop                       confidence_interval
    ## p Baltimore, MD      0.6455607 ( 0.627562457662644 , 0.663159860401662 )

``` r
# run prop.test for each of the cities
result <- num_homi|>
  mutate(test = map2(unsolved, total_homi, \(x,y)prop.test(x,y)),
         tidy = map(test, broom::tidy))|>
  unnest(tidy)|>
  #extract both the proportion of unsolved homicides and the confidence interval for each
  select(city_state, estimate, conf.low, conf.high)
result
```

    ## # A tibble: 50 × 4
    ##    city_state      estimate conf.low conf.high
    ##    <chr>              <dbl>    <dbl>     <dbl>
    ##  1 Albuquerque, NM    0.386    0.337     0.438
    ##  2 Atlanta, GA        0.383    0.353     0.415
    ##  3 Baltimore, MD      0.646    0.628     0.663
    ##  4 Baton Rouge, LA    0.462    0.414     0.511
    ##  5 Birmingham, AL     0.434    0.399     0.469
    ##  6 Boston, MA         0.505    0.465     0.545
    ##  7 Buffalo, NY        0.612    0.569     0.654
    ##  8 Charlotte, NC      0.300    0.266     0.336
    ##  9 Chicago, IL        0.736    0.724     0.747
    ## 10 Cincinnati, OH     0.445    0.408     0.483
    ## # ℹ 40 more rows
…
# make function to generate 5000 data set
t_test <- function(m){
  for(i in 1:5000){
    x <- rnorm(n, m, sigma)
    test <- t.test(x, conf.level=0.95, mu = 0)
    test <- broom::tidy(test)
    test_result[[i]] <- tibble(set = i, m =m, mu_hat = pull(test, estimate), p_value = pull(test, p.value))
  }
  out <- bind_rows(test_result)
  return(out)
}
t_test(0)
```

    ## # A tibble: 5,000 × 4
    ##      set     m   mu_hat p_value
    ##    <int> <dbl>    <dbl>   <dbl>
    ##  1     1     0  1.54      0.180
    ##  2     2     0 -1.10      0.216
    ##  3     3     0 -0.262     0.745
    ##  4     4     0 -0.142     0.887
    ##  5     5     0 -0.871     0.457
    ##  6     6     0  0.00711   0.994
    ##  7     7     0 -0.923     0.338
    ##  8     8     0  0.769     0.320
    ##  9     9     0  0.439     0.704
    ## 10    10     0 -1.29      0.214
    ## # ℹ 4,990 more rows
…
